^C:\USERS\MAGSHIMIM\LESSON3_ASSIGNMENT\PROJECT1\PROJECT2\DEBUG\SOURCEB.OBJ|C:\USERS\MAGSHIMIM\LESSON3_ASSIGNMENT\PROJECT1\PROJECT2\DEBUG\SQLITE3.OBJ
C:\USERS\MAGSHIMIM\LESSON3_ASSIGNMENT\PROJECT1\DEBUG\PROJECT2.EXE
C:\USERS\MAGSHIMIM\LESSON3_ASSIGNMENT\PROJECT1\DEBUG\PROJECT2.ILK
C:\USERS\MAGSHIMIM\LESSON3_ASSIGNMENT\PROJECT1\DEBUG\PROJECT2.PDB
