^C:\USERS\MAGSHIMIM\LESSON3_ASSIGNMENT\PROJECT1\PROJECT1\SQLITE3.C
C:\USERS\MAGSHIMIM\LESSON3_ASSIGNMENT\PROJECT1\PROJECT1\DEBUG\VC141.PDB
C:\USERS\MAGSHIMIM\LESSON3_ASSIGNMENT\PROJECT1\PROJECT1\DEBUG\VC141.IDB
C:\USERS\MAGSHIMIM\LESSON3_ASSIGNMENT\PROJECT1\PROJECT1\DEBUG\SQLITE3.OBJ
^C:\USERS\MAGSHIMIM\LESSON3_ASSIGNMENT\PROJECT1\PROJECT1\SOURCEA.CPP
C:\USERS\MAGSHIMIM\LESSON3_ASSIGNMENT\PROJECT1\PROJECT1\DEBUG\VC141.PDB
C:\USERS\MAGSHIMIM\LESSON3_ASSIGNMENT\PROJECT1\PROJECT1\DEBUG\VC141.IDB
C:\USERS\MAGSHIMIM\LESSON3_ASSIGNMENT\PROJECT1\PROJECT1\DEBUG\SOURCEA.OBJ
